Getting Started with healthyR.ai
…
Variable Loadings

pca_list$variable_loadings
#> # A tibble: 169 x 4
#>    terms                value component id       
#>    <chr>                <dbl> <chr>     <chr>    
#>  1 date_col_index.num -0.0322 PC1       pca_deuzL
#>  2 date_col_year       0.0197 PC1       pca_deuzL
#>  3 date_col_half      -0.388  PC1       pca_deuzL
#>  4 date_col_quarter   -0.435  PC1       pca_deuzL
#>  5 date_col_month     -0.437  PC1       pca_deuzL
#>  6 date_col_wday      -0.0207 PC1       pca_deuzL
#>  7 date_col_qday      -0.0387 PC1       pca_deuzL
#>  8 date_col_yday      -0.437  PC1       pca_deuzL
#>  9 date_col_mweek      0.0372 PC1       pca_deuzL
#> 10 date_col_week      -0.438  PC1       pca_deuzL
#> # ... with 159 more rows

Variable Variance

pca_list$variable_variance
#> # A tibble: 52 x 4
#>    terms       value component id       
#>    <chr>       <dbl>     <int> <chr>    
#>  1 variance 5.13             1 pca_deuzL
#>  2 variance 2.02             2 pca_deuzL
#>  3 variance 1.51             3 pca_deuzL
#>  4 variance 1.44             4 pca_deuzL
#>  5 variance 1.14             5 pca_deuzL
#>  6 variance 0.645            6 pca_deuzL
#>  7 variance 0.591            7 pca_deuzL
#>  8 variance 0.469            8 pca_deuzL
#>  9 variance 0.0602           9 pca_deuzL
#> 10 variance 0.000261        10 pca_deuzL
#> # ... with 42 more rows
…
